# 3ds Max Wavefront OBJ Exporter v0.97b - (c)2007 guruware
# File Created: 19.11.2014 12:25:40

newmtl wire_225143087
	Ns 32
	d 1
	Tr 0
	Tf 1 1 1
	illum 2
	Ka 0.8824 0.5608 0.3412
	Kd 0.8824 0.5608 0.3412
	Ks 0.3500 0.3500 0.3500
